^C:\USERS\USER\DOCUMENTS\ПРОГРАММЫ\4 КУРС\МОДЕЛИРОВАНИЕ СИСТЕМ (ГРИНЬ)\SOLVINGBOUNDARYVALUEPROBLEMS\SOLVINGBOUNDARYVALUEPROBLEMS\PCH.CPP
C:\USERS\USER\DOCUMENTS\Программы\4 курс\Моделирование систем (Гринь)\SOLVINGBOUNDARYVALUEPROBLEMS\SOLVINGBOUNDARYVALUEPROBLEMS\DEBUG\SOLVINGBOUNDARYVALUEPROBLEMS.PCH
C:\USERS\USER\DOCUMENTS\Программы\4 курс\Моделирование систем (Гринь)\SOLVINGBOUNDARYVALUEPROBLEMS\SOLVINGBOUNDARYVALUEPROBLEMS\DEBUG\VC142.PDB
C:\USERS\USER\DOCUMENTS\Программы\4 курс\Моделирование систем (Гринь)\SOLVINGBOUNDARYVALUEPROBLEMS\SOLVINGBOUNDARYVALUEPROBLEMS\DEBUG\VC142.IDB
C:\USERS\USER\DOCUMENTS\Программы\4 курс\Моделирование систем (Гринь)\SOLVINGBOUNDARYVALUEPROBLEMS\SOLVINGBOUNDARYVALUEPROBLEMS\DEBUG\PCH.OBJ
^C:\USERS\USER\DOCUMENTS\ПРОГРАММЫ\4 КУРС\МОДЕЛИРОВАНИЕ СИСТЕМ (ГРИНЬ)\SOLVINGBOUNDARYVALUEPROBLEMS\SOLVINGBOUNDARYVALUEPROBLEMS\SOLVINGBOUNDARYVALUEPROBLEMS.CPP|C:\USERS\USER\DOCUMENTS\ПРОГРАММЫ\4 КУРС\МОДЕЛИРОВАНИЕ СИСТЕМ (ГРИНЬ)\SOLVINGBOUNDARYVALUEPROBLEMS\SOLVINGBOUNDARYVALUEPROBLEMS\SOLVINGBOUNDARYVALUEPROBLEMSDLG.CPP
C:\USERS\USER\DOCUMENTS\Программы\4 курс\Моделирование систем (Гринь)\SOLVINGBOUNDARYVALUEPROBLEMS\SOLVINGBOUNDARYVALUEPROBLEMS\DEBUG\VC142.PDB
C:\USERS\USER\DOCUMENTS\Программы\4 курс\Моделирование систем (Гринь)\SOLVINGBOUNDARYVALUEPROBLEMS\SOLVINGBOUNDARYVALUEPROBLEMS\DEBUG\VC142.IDB
C:\USERS\USER\DOCUMENTS\Программы\4 курс\Моделирование систем (Гринь)\SOLVINGBOUNDARYVALUEPROBLEMS\SOLVINGBOUNDARYVALUEPROBLEMS\DEBUG\SOLVINGBOUNDARYVALUEPROBLEMSDLG.OBJ
C:\USERS\USER\DOCUMENTS\Программы\4 курс\Моделирование систем (Гринь)\SOLVINGBOUNDARYVALUEPROBLEMS\SOLVINGBOUNDARYVALUEPROBLEMS\DEBUG\SOLVINGBOUNDARYVALUEPROBLEMS.OBJ
^C:\USERS\USER\DOCUMENTS\ПРОГРАММЫ\4 КУРС\МОДЕЛИРОВАНИЕ СИСТЕМ (ГРИНЬ)\SOLVINGBOUNDARYVALUEPROBLEMS\SOLVINGBOUNDARYVALUEPROBLEMS\SOLVINGBOUNDARYVALUEPROBLEMS.CPP
C:\USERS\USER\DOCUMENTS\ПРОГРАММЫ\4 КУРС\МОДЕЛИРОВАНИЕ СИСТЕМ (ГРИНЬ)\SOLVINGBOUNDARYVALUEPROBLEMS\SOLVINGBOUNDARYVALUEPROBLEMS\DEBUG\VC142.PDB
^C:\USERS\USER\DOCUMENTS\ПРОГРАММЫ\4 КУРС\МОДЕЛИРОВАНИЕ СИСТЕМ (ГРИНЬ)\SOLVINGBOUNDARYVALUEPROBLEMS\SOLVINGBOUNDARYVALUEPROBLEMS\SOLVINGBOUNDARYVALUEPROBLEMSDLG.CPP
C:\USERS\USER\DOCUMENTS\Программы\4 курс\Моделирование систем (Гринь)\SOLVINGBOUNDARYVALUEPROBLEMS\SOLVINGBOUNDARYVALUEPROBLEMS\DEBUG\VC142.PDB
C:\USERS\USER\DOCUMENTS\Программы\4 курс\Моделирование систем (Гринь)\SOLVINGBOUNDARYVALUEPROBLEMS\SOLVINGBOUNDARYVALUEPROBLEMS\DEBUG\VC142.IDB
C:\USERS\USER\DOCUMENTS\Программы\4 курс\Моделирование систем (Гринь)\SOLVINGBOUNDARYVALUEPROBLEMS\SOLVINGBOUNDARYVALUEPROBLEMS\DEBUG\SOLVINGBOUNDARYVALUEPROBLEMSDLG.OBJ
