^C:\USERS\USER\DOCUMENTS\ПРОГРАММЫ\4 КУРС\МОДЕЛИРОВАНИЕ СИСТЕМ (ГРИНЬ)\SOLVINGBOUNDARYVALUEPROBLEMS\SOLVINGBOUNDARYVALUEPROBLEMS\DEBUG\PCH.OBJ|C:\USERS\USER\DOCUMENTS\ПРОГРАММЫ\4 КУРС\МОДЕЛИРОВАНИЕ СИСТЕМ (ГРИНЬ)\SOLVINGBOUNDARYVALUEPROBLEMS\SOLVINGBOUNDARYVALUEPROBLEMS\DEBUG\SOLVINGBOUNDARYVALUEPROBLEMS.OBJ|C:\USERS\USER\DOCUMENTS\ПРОГРАММЫ\4 КУРС\МОДЕЛИРОВАНИЕ СИСТЕМ (ГРИНЬ)\SOLVINGBOUNDARYVALUEPROBLEMS\SOLVINGBOUNDARYVALUEPROBLEMS\DEBUG\SOLVINGBOUNDARYVALUEPROBLEMS.RES|C:\USERS\USER\DOCUMENTS\ПРОГРАММЫ\4 КУРС\МОДЕЛИРОВАНИЕ СИСТЕМ (ГРИНЬ)\SOLVINGBOUNDARYVALUEPROBLEMS\SOLVINGBOUNDARYVALUEPROBLEMS\DEBUG\SOLVINGBOUNDARYVALUEPROBLEMSDLG.OBJ
C:\USERS\USER\DOCUMENTS\Программы\4 курс\Моделирование систем (Гринь)\SOLVINGBOUNDARYVALUEPROBLEMS\DEBUG\SOLVINGBOUNDARYVALUEPROBLEMS.EXE
C:\USERS\USER\DOCUMENTS\Программы\4 курс\Моделирование систем (Гринь)\SOLVINGBOUNDARYVALUEPROBLEMS\DEBUG\SOLVINGBOUNDARYVALUEPROBLEMS.ILK
C:\USERS\USER\DOCUMENTS\ПРОГРАММЫ\4 КУРС\МОДЕЛИРОВАНИЕ СИСТЕМ (ГРИНЬ)\SOLVINGBOUNDARYVALUEPROBLEMS\DEBUG\SOLVINGBOUNDARYVALUEPROBLEMS.PDB
